…
### 1.3 Adding variable `lifeExpInc` to show filtered entries that have experienced drops in life expectancy with `lag()`.

``` r
gapminder %>%
  mutate(lifeExpInc = lifeExp-lag(gapminder$lifeExp,1)) %>% 
  filter(lifeExpInc < 0, year != 1952) %>% 
  select(lifeExpInc, everything()) %>% 
  arrange(lifeExpInc)
```

    ## # A tibble: 102 x 7
    ##    lifeExpInc country      continent  year lifeExp       pop gdpPercap
    ##         <dbl> <fct>        <fct>     <int>   <dbl>     <int>     <dbl>
    ##  1     -20.4  Rwanda       Africa     1992    23.6   7290203      737.
    ##  2     -13.6  Zimbabwe     Africa     1997    46.8  11404948      792.
    ##  3     -11.0  Lesotho      Africa     2002    44.6   2046772     1275.
    ##  4     -10.4  Swaziland    Africa     2002    43.9   1130269     4128.
    ##  5     -10.2  Botswana     Africa     1997    52.6   1536536     8647.
    ##  6      -9.10 Cambodia     Asia       1977    31.2   6978607      525.
    ##  7      -7.43 Namibia      Africa     2002    51.5   1972153     4072.
    ##  8      -6.87 South Africa Africa     2002    53.4  44433622     7711.
    ##  9      -6.82 Zimbabwe     Africa     2002    40.0  11926563      672.
    ## 10      -6.05 China        Asia       1962    44.5 665770000      488.
    ## # ... with 92 more rows

### 1.4 Adding `gdpPercapMax` to show the max GDP per capita experienced by each country with `max()`.

``` r
gapminder %>% 
  group_by(country) %>% 
  filter(gdpPercap == max(gdpPercap)) %>% 
  rename(gdpPercapMax = gdpPercap) %>% 
  select(gdpPercapMax, country) %>% 
  arrange(desc(gdpPercapMax))
```

    ## # A tibble: 142 x 2
    ## # Groups:   country [142]
    ##    gdpPercapMax country         
    ##           <dbl> <fct>           
    ##  1      113523. Kuwait          
    ##  2       49357. Norway          
    ##  3       47143. Singapore       
    ##  4       42952. United States   
    ##  5       40676. Ireland         
    ##  6       39725. Hong Kong, China
    ##  7       37506. Switzerland     
    ##  8       36798. Netherlands     
    ##  9       36319. Canada          
    ## 10       36181. Iceland         
    ## # ... with 132 more rows
…
#### 2.2.3 Next, let’s see the *distribution*.

**country**:

``` r
gapminder %>% 
  select(country) %>% 
  count(country)
```

    ## # A tibble: 142 x 2
    ##    country         n
    ##    <fct>       <int>
    ##  1 Afghanistan    12
    ##  2 Albania        12
    ##  3 Algeria        12
    ##  4 Angola         12
    ##  5 Argentina      12
    ##  6 Australia      12
    ##  7 Austria        12
    ##  8 Bahrain        12
    ##  9 Bangladesh     12
    ## 10 Belgium        12
    ## # ... with 132 more rows
…
## Recycling

The analyst didn’t succeed in getting the entire data for Rwanda and
Afghanistan. He or she shouldn’t have used `c()` function. A right way
to do this job is by running the code below.

``` r
filter(gapminder, country == "Rwanda" | country == "Afghanistan")
```

    ## # A tibble: 24 x 6
    ##    country     continent  year lifeExp      pop gdpPercap
    ##    <fct>       <fct>     <int>   <dbl>    <int>     <dbl>
    ##  1 Afghanistan Asia       1952    28.8  8425333      779.
    ##  2 Afghanistan Asia       1957    30.3  9240934      821.
    ##  3 Afghanistan Asia       1962    32.0 10267083      853.
    ##  4 Afghanistan Asia       1967    34.0 11537966      836.
    ##  5 Afghanistan Asia       1972    36.1 13079460      740.
    ##  6 Afghanistan Asia       1977    38.4 14880372      786.
    ##  7 Afghanistan Asia       1982    39.9 12881816      978.
    ##  8 Afghanistan Asia       1987    40.8 13867957      852.
    ##  9 Afghanistan Asia       1992    41.7 16317921      649.
    ## 10 Afghanistan Asia       1997    41.8 22227415      635.
    ## # ... with 14 more rows
